Master en Big Data. Fundamentos Matemáticos del Análisis de Datos (FMAD).
…
library(tidyr)
#No cumplen los principios de tidy data porque las filas de week no corresponden a observaciones
(testResulTidys = testResult %>% 
    pivot_longer(week1:week5, names_to = "week") %>%
    separate(gender_age, c("gender", "age"), sep = "([_])")
    )

## # A tibble: 1,000 × 7
##    name     id gender age   test_number week  value
##    <chr> <int> <chr>  <chr>       <int> <chr> <int>
##  1 Jacob   108 m      20              1 week1     8
##  2 Jacob   108 m      20              1 week2     5
##  3 Jacob   108 m      20              1 week3     7
##  4 Jacob   108 m      20              1 week4     5
##  5 Jacob   108 m      20              1 week5     6
##  6 Jacob   108 m      20              2 week1     2
##  7 Jacob   108 m      20              2 week2     2
##  8 Jacob   108 m      20              2 week3     4
##  9 Jacob   108 m      20              2 week4     0
## 10 Jacob   108 m      20              2 week5     3
## # … with 990 more rows
…
